Democratização de acesso a dados de saúde, ambiente e clima com o R – Raphael Saldanha
…
{microdatasus}

library(microdatasus)

raw_data <- fetch_datasus(
  year_start = 2022,
  year_end = 2023,
  uf = "ES",
  information_system = "SIM-DO"
)

tibble::tibble(raw_data)

# A tibble: 55,307 × 87
   ORIGEM TIPOBITO DTOBITO  HORAOBITO NATURAL CODMUNNATU DTNASC   IDADE SEXO 
   <chr>  <chr>    <chr>    <chr>     <chr>   <chr>      <chr>    <chr> <chr>
 1 1      2        22012022 1420      832     320530     16041965 456   2    
 2 1      2        22012022 1625      825     250690     02031966 455   1    
 3 1      2        22012022 2317      832     320030     17101932 489   1    
 4 1      2        22012022 1846      832     320390     17121985 436   1    
 5 1      2        22012022 0545      831     311330     06081941 480   1    
 6 1      2        22012022 0558      829     292270     17071950 471   2    
 7 1      2        22012022 1205      829     290150     20111936 485   2    
 8 1      2        22012022 1300      831     314850     23091930 491   1    
 9 1      2        23012022 1644      832     320320     19061991 430   1    
10 1      2        23012022 0810      825     250770     23041930 491   2    
# ℹ 55,297 more rows
# ℹ 78 more variables: RACACOR <chr>, ESTCIV <chr>, ESC <chr>, ESC2010 <chr>,
#   SERIESCFAL <chr>, OCUP <chr>, CODMUNRES <chr>, LOCOCOR <chr>,
#   CODESTAB <chr>, ESTABDESCR <chr>, CODMUNOCOR <chr>, IDADEMAE <chr>,
#   ESCMAE <chr>, ESCMAE2010 <chr>, SERIESCMAE <chr>, OCUPMAE <chr>,
#   QTDFILVIVO <chr>, QTDFILMORT <chr>, GRAVIDEZ <chr>, SEMAGESTAC <chr>,
#   GESTACAO <chr>, PARTO <chr>, OBITOPARTO <chr>, PESO <chr>, …

{microdatasus}

p_data <- process_sim(raw_data)

tibble::tibble(p_data)

# A tibble: 55,307 × 100
   ORIGEM TIPOBITO  DTOBITO    HORAOBITO CODMUNNATU DTNASC   IDADE SEXO  RACACOR
   <chr>  <chr>     <chr>      <chr>     <chr>      <chr>    <chr> <chr> <chr>  
 1 1      Não Fetal 2022-01-22 1420      320530     1965-04… 456   Femi… Parda  
 2 1      Não Fetal 2022-01-22 1625      250690     1966-03… 455   Masc… Preta  
 3 1      Não Fetal 2022-01-22 2317      320030     1932-10… 489   Masc… Branca 
 4 1      Não Fetal 2022-01-22 1846      320390     1985-12… 436   Masc… Parda  
 5 1      Não Fetal 2022-01-22 0545      311330     1941-08… 480   Masc… Parda  
 6 1      Não Fetal 2022-01-22 0558      292270     1950-07… 471   Femi… Parda  
 7 1      Não Fetal 2022-01-22 1205      290150     1936-11… 485   Femi… Parda  
 8 1      Não Fetal 2022-01-22 1300      314850     1930-09… 491   Masc… Branca 
 9 1      Não Fetal 2022-01-23 1644      320320     1991-06… 430   Masc… Parda  
10 1      Não Fetal 2022-01-23 0810      250770     1930-04… 491   Femi… Branca 
# ℹ 55,297 more rows
# ℹ 91 more variables: ESTCIV <chr>, ESC <chr>, ESC2010 <chr>,
#   SERIESCFAL <chr>, CODMUNRES <chr>, LOCOCOR <chr>, CODESTAB <chr>,
#   ESTABDESCR <chr>, CODMUNOCOR <chr>, IDADEMAE <chr>, ESCMAE <chr>,
#   ESCMAE2010 <chr>, SERIESCMAE <chr>, QTDFILVIVO <chr>, QTDFILMORT <chr>,
#   GRAVIDEZ <chr>, SEMAGESTAC <chr>, GESTACAO <chr>, PARTO <chr>,
#   OBITOPARTO <chr>, PESO <chr>, TPMORTEOCO <chr>, OBITOGRAV <chr>, …
…
