Raphael Saldanha - Age-adjusted COVID-19 mortality rates for Brazilian municipalities
…
That’s it! Let’s take a look at the rates for Rio de Janeiro, RJ on 2022.

rates %>%
  filter(code_muni == 330455) %>%
  filter(year == 2022)

# A tibble: 52 × 7
   code_muni  year  week crude.rate adj.rate   lci   uci
       <dbl> <dbl> <dbl>      <dbl>    <dbl> <dbl> <dbl>
 1    330455  2022     1      0.251    0.175 0.101 0.297
 2    330455  2022     2      1.17     0.839 0.662 1.06 
 3    330455  2022     3      3.81     2.70  2.37  3.06 
 4    330455  2022     4      5.58     3.96  3.57  4.40 
 5    330455  2022     5      4.44     3.11  2.76  3.49 
 6    330455  2022     6      2.83     2.00  1.72  2.32 
 7    330455  2022     7      1.98     1.43  1.20  1.71 
 8    330455  2022     8      0.989    0.682 0.528 0.880
 9    330455  2022     9      0.398    0.283 0.185 0.428
10    330455  2022    10      0.310    0.217 0.133 0.346
# ℹ 42 more rows
…
