Raphael Saldanha – Univariate and multivariate time series clustering
…
m_cluster_ids

Simple feature collection with 27 features and 3 fields
Geometry type: POINT
Dimension:     XY
Bounding box:  xmin: -67.8243 ymin: -30.0318 xmax: -34.8641 ymax: 2.82384
Geodetic CRS:  Hu Tzu Shan 1950
# A tibble: 27 × 4
   code_muni group name_muni                     geometry
       <dbl> <chr> <chr>                      <POINT [°]>
 1   2800308 1     Aracaju, SE        (-37.0677 -10.9091)
 2   2507507 1     João Pessoa, PB    (-34.8641 -7.11509)
 3   2704302 1     Maceió, AL          (-35.735 -9.66599)
 4   2408102 1     Natal, RN          (-35.1986 -5.79357)
 5   2611606 1     Recife, PE         (-34.8771 -8.04666)
 6   2927408 1     Salvador, BA       (-38.5011 -12.9718)
 7   3106200 2     Belo Horizonte, MG (-43.9266 -19.9102)
 8   5300108 2     Brasília, DF       (-47.9297 -15.7795)
 9   5103403 2     Cuiabá, MT          (-56.0974 -15.601)
10   5208707 2     Goiânia, GO        (-49.2643 -16.6864)
# ℹ 17 more rows
…
